{
	"logFile": "tubebeacon.log",
	"statusFile": "status.json",
	"webhookUrl": "[Discord webhook URL here]",
	"youTubeKey": "[YouTube API key here]",
	"channels":
	[
		{
			"id": "UCa2l01OG47qrG-9fKj-kBQA",
			"name": "Kevin Bee",
			"delay": 1
		},
		{
			"id": "[additional channel ID]",
			"name": "[Custom name to use for messages (if blank, will default to using channel name from YouTube]",
			"delay": "[integer representing number of miniutes; minimum and default is 1]"
		}
	]
}
